[
[{"id":1,"first_name":"Lothario","last_name":"Hamly","email":"lhamly0@sun.com","gender":"Male","ip_address":"177.127.147.91"},
{"id":2,"first_name":"Rolland","last_name":"Greatbanks","email":"rgreatbanks1@tripadvisor.com","gender":"Male","ip_address":"87.133.226.45"},
{"id":3,"first_name":"Anneliese","last_name":"Bellringer","email":"abellringer2@admin.ch","gender":"Female","ip_address":"145.44.229.94"},
{"id":4,"first_name":"Eadie","last_name":"Kyme","email":"ekyme3@squidoo.com","gender":"Female","ip_address":"214.169.51.177"},
{"id":5,"first_name":"Roddy","last_name":"Hugle","email":"rhugle4@dropbox.com","gender":"Male","ip_address":"9.7.182.151"},
{"id":6,"first_name":"Casey","last_name":"Skeats","email":"cskeats5@yolasite.com","gender":"Female","ip_address":"58.178.220.224"},
{"id":7,"first_name":"Jana","last_name":"Ayars","email":"jayars6@harvard.edu","gender":"Female","ip_address":"153.205.18.93"},
{"id":8,"first_name":"Emeline","last_name":"Philpot","email":"ephilpot7@ycombinator.com","gender":"Female","ip_address":"216.93.227.200"},
{"id":9,"first_name":"Feliza","last_name":"Beat","email":"fbeat8@yolasite.com","gender":"Female","ip_address":"72.109.47.83"},
{"id":10,"first_name":"Jeralee","last_name":"Cobbold","email":"jcobbold9@cmu.edu","gender":"Female","ip_address":"232.148.193.134"},
{"id":11,"first_name":"Basilio","last_name":"Kasting","email":"bkastinga@patch.com","gender":"Male","ip_address":"135.95.83.59"},
{"id":12,"first_name":"Elwin","last_name":"Nisuis","email":"enisuisb@bloglines.com","gender":"Male","ip_address":"84.48.243.200"},
{"id":13,"first_name":"Hugo","last_name":"Maultby","email":"hmaultbyc@squidoo.com","gender":"Male","ip_address":"138.107.78.192"},
{"id":14,"first_name":"Dilly","last_name":"Aveline","email":"davelined@bbb.org","gender":"Male","ip_address":"151.196.161.194"},
{"id":15,"first_name":"Travers","last_name":"Bent","email":"tbente@xinhuanet.com","gender":"Male","ip_address":"216.75.39.147"},
{"id":16,"first_name":"Liv","last_name":"Lawn","email":"llawnf@globo.com","gender":"Female","ip_address":"52.46.182.117"},
{"id":17,"first_name":"Lynelle","last_name":"Gethyn","email":"lgethyng@w3.org","gender":"Female","ip_address":"67.172.131.124"},
{"id":18,"first_name":"Heinrick","last_name":"Grima","email":"hgrimah@loc.gov","gender":"Male","ip_address":"201.160.240.108"},
{"id":19,"first_name":"Kirby","last_name":"Najara","email":"knajarai@networkadvertising.org","gender":"Male","ip_address":"170.229.208.43"},
{"id":20,"first_name":"Gerardo","last_name":"Coppock.","email":"gcoppockj@rambler.ru","gender":"Male","ip_address":"231.25.96.91"},
{"id":21,"first_name":"Gilberto","last_name":"Bessent","email":"gbessentk@acquirethisname.com","gender":"Male","ip_address":"170.254.216.36"},
{"id":22,"first_name":"Maritsa","last_name":"Sans","email":"msansl@deviantart.com","gender":"Female","ip_address":"99.110.27.88"},
{"id":23,"first_name":"Phip","last_name":"Rousel","email":"prouselm@upenn.edu","gender":"Male","ip_address":"28.176.0.181"},
{"id":24,"first_name":"Xenia","last_name":"Lassell","email":"xlasselln@go.com","gender":"Female","ip_address":"78.247.153.241"},
{"id":25,"first_name":"Johannah","last_name":"Stockings","email":"jstockingso@intel.com","gender":"Female","ip_address":"13.142.0.102"},
{"id":26,"first_name":"Engelbert","last_name":"Moorhouse","email":"emoorhousep@cnn.com","gender":"Male","ip_address":"13.225.58.137"},
{"id":27,"first_name":"Silvain","last_name":"Stickels","email":"sstickelsq@omniture.com","gender":"Male","ip_address":"179.136.90.199"},
{"id":28,"first_name":"Kris","last_name":"Gull","email":"kgullr@loc.gov","gender":"Male","ip_address":"133.192.203.254"},
{"id":29,"first_name":"Harry","last_name":"Ivchenko","email":"hivchenkos@zdnet.com","gender":"Male","ip_address":"58.237.222.30"},
{"id":30,"first_name":"Ainslie","last_name":"Pawelke","email":"apawelket@opera.com","gender":"Female","ip_address":"229.202.239.249"},
{"id":31,"first_name":"Lu","last_name":"Hastler","email":"lhastleru@netlog.com","gender":"Female","ip_address":"43.44.86.244"},
{"id":32,"first_name":"Hamnet","last_name":"Bonnavant","email":"hbonnavantv@typepad.com","gender":"Male","ip_address":"248.36.155.165"},
{"id":33,"first_name":"Corilla","last_name":"Dummigan","email":"cdummiganw@vinaora.com","gender":"Female","ip_address":"203.167.61.183"},
{"id":34,"first_name":"Joleen","last_name":"Bernet","email":"jbernetx@mail.ru","gender":"Female","ip_address":"102.130.107.255"},
{"id":35,"first_name":"Ninetta","last_name":"Checcucci","email":"ncheccucciy@samsung.com","gender":"Female","ip_address":"9.253.209.132"},
{"id":36,"first_name":"Lorne","last_name":"Arnason","email":"larnasonz@princeton.edu","gender":"Male","ip_address":"154.193.226.94"},
{"id":37,"first_name":"Ben","last_name":"Kingaby","email":"bkingaby10@cam.ac.uk","gender":"Male","ip_address":"170.102.217.126"},
{"id":38,"first_name":"Ring","last_name":"Maryet","email":"rmaryet11@elpais.com","gender":"Male","ip_address":"17.167.193.235"},
{"id":39,"first_name":"Faustine","last_name":"Tapper","email":"ftapper12@homestead.com","gender":"Female","ip_address":"227.239.23.191"},
{"id":40,"first_name":"Homer","last_name":"Kilner","email":"hkilner13@technorati.com","gender":"Male","ip_address":"85.20.11.47"},
{"id":41,"first_name":"Carrol","last_name":"Creaven","email":"ccreaven14@ca.gov","gender":"Male","ip_address":"75.114.174.196"},
{"id":42,"first_name":"Vail","last_name":"Obal","email":"vobal15@elegantthemes.com","gender":"Male","ip_address":"124.241.172.65"},
{"id":43,"first_name":"Eli","last_name":"Bunworth","email":"ebunworth16@liveinternet.ru","gender":"Male","ip_address":"168.239.232.94"},
{"id":44,"first_name":"Winifred","last_name":"Francklyn","email":"wfrancklyn17@wikipedia.org","gender":"Female","ip_address":"101.186.98.11"},
{"id":45,"first_name":"Stan","last_name":"Treat","email":"streat18@nba.com","gender":"Male","ip_address":"31.144.84.123"},
{"id":46,"first_name":"Taddeusz","last_name":"Deeman","email":"tdeeman19@diigo.com","gender":"Male","ip_address":"225.234.131.182"},
{"id":47,"first_name":"Mill","last_name":"Tremonte","email":"mtremonte1a@mashable.com","gender":"Male","ip_address":"47.174.88.23"},
{"id":48,"first_name":"Keary","last_name":"Zambon","email":"kzambon1b@omniture.com","gender":"Male","ip_address":"247.127.248.169"},
{"id":49,"first_name":"Ingemar","last_name":"Parell","email":"iparell1c@360.cn","gender":"Male","ip_address":"29.165.22.3"},
{"id":50,"first_name":"Bondie","last_name":"Thicking","email":"bthicking1d@edublogs.org","gender":"Male","ip_address":"85.146.232.220"},
{"id":51,"first_name":"Gleda","last_name":"Lalley","email":"glalley1e@stumbleupon.com","gender":"Female","ip_address":"245.167.72.202"},
{"id":52,"first_name":"Anatola","last_name":"Adney","email":"aadney1f@etsy.com","gender":"Female","ip_address":"250.154.61.221"},
{"id":53,"first_name":"Alix","last_name":"Anderl","email":"aanderl1g@infoseek.co.jp","gender":"Female","ip_address":"224.149.183.58"},
{"id":54,"first_name":"Heriberto","last_name":"Tommaseo","email":"htommaseo1h@google.de","gender":"Male","ip_address":"112.246.75.32"},
{"id":55,"first_name":"Fernanda","last_name":"Sorrell","email":"fsorrell1i@whitehouse.gov","gender":"Female","ip_address":"47.150.132.71"},
{"id":56,"first_name":"Averell","last_name":"Barchrameev","email":"abarchrameev1j@alibaba.com","gender":"Male","ip_address":"139.51.109.103"},
{"id":57,"first_name":"Car","last_name":"Fasey","email":"cfasey1k@youtube.com","gender":"Male","ip_address":"159.229.103.88"},
{"id":58,"first_name":"Kamilah","last_name":"Hechlin","email":"khechlin1l@netscape.com","gender":"Female","ip_address":"150.214.1.237"},
{"id":59,"first_name":"Keir","last_name":"Jefferd","email":"kjefferd1m@sogou.com","gender":"Male","ip_address":"251.9.171.210"},
{"id":60,"first_name":"Zachary","last_name":"Pymm","email":"zpymm1n@samsung.com","gender":"Male","ip_address":"189.203.227.24"},
{"id":61,"first_name":"Hill","last_name":"Reditt","email":"hreditt1o@list-manage.com","gender":"Male","ip_address":"203.0.123.216"},
{"id":62,"first_name":"Parker","last_name":"Andrini","email":"pandrini1p@boston.com","gender":"Male","ip_address":"141.2.113.123"},
{"id":63,"first_name":"Karyn","last_name":"Grestie","email":"kgrestie1q@stanford.edu","gender":"Female","ip_address":"83.168.67.209"},
{"id":64,"first_name":"Temple","last_name":"Kondrachenko","email":"tkondrachenko1r@sina.com.cn","gender":"Male","ip_address":"150.71.204.171"},
{"id":65,"first_name":"Dru","last_name":"Tunna","email":"dtunna1s@wisc.edu","gender":"Male","ip_address":"235.221.12.207"},
{"id":66,"first_name":"Bret","last_name":"Bonefant","email":"bbonefant1t@e-recht24.de","gender":"Male","ip_address":"156.185.149.140"},
{"id":67,"first_name":"Frederique","last_name":"Buckby","email":"fbuckby1u@hao123.com","gender":"Female","ip_address":"140.59.11.178"},
{"id":68,"first_name":"Dewey","last_name":"Hebble","email":"dhebble1v@jugem.jp","gender":"Male","ip_address":"207.64.131.248"},
{"id":69,"first_name":"Niko","last_name":"Sicely","email":"nsicely1w@newyorker.com","gender":"Male","ip_address":"50.170.71.170"},
{"id":70,"first_name":"Mercy","last_name":"Cleminshaw","email":"mcleminshaw1x@barnesandnoble.com","gender":"Female","ip_address":"29.109.10.151"},
{"id":71,"first_name":"Steffie","last_name":"Wearden","email":"swearden1y@amazon.co.jp","gender":"Female","ip_address":"15.56.107.162"},
{"id":72,"first_name":"Lisetta","last_name":"Winch","email":"lwinch1z@imdb.com","gender":"Female","ip_address":"12.179.139.25"},
{"id":73,"first_name":"Lyda","last_name":"De Coursey","email":"ldecoursey20@canalblog.com","gender":"Female","ip_address":"71.26.230.22"},
{"id":74,"first_name":"Rosalinda","last_name":"Pellew","email":"rpellew21@digg.com","gender":"Female","ip_address":"192.32.131.214"},
{"id":75,"first_name":"Far","last_name":"Ellery","email":"fellery22@loc.gov","gender":"Male","ip_address":"238.197.117.242"},
{"id":76,"first_name":"Gaylor","last_name":"Paxforde","email":"gpaxforde23@forbes.com","gender":"Male","ip_address":"226.237.141.248"},
{"id":77,"first_name":"Gage","last_name":"Pepall","email":"gpepall24@java.com","gender":"Male","ip_address":"122.130.173.201"},
{"id":78,"first_name":"Glendon","last_name":"MacTrustram","email":"gmactrustram25@printfriendly.com","gender":"Male","ip_address":"149.146.207.80"},
{"id":79,"first_name":"Bobbette","last_name":"Tallet","email":"btallet26@tripod.com","gender":"Female","ip_address":"96.90.239.161"},
{"id":80,"first_name":"Manfred","last_name":"Benedict","email":"mbenedict27@qq.com","gender":"Male","ip_address":"100.173.5.94"},
{"id":81,"first_name":"Brana","last_name":"Wattingham","email":"bwattingham28@e-recht24.de","gender":"Female","ip_address":"9.90.241.64"},
{"id":82,"first_name":"Ferris","last_name":"Keady","email":"fkeady29@japanpost.jp","gender":"Male","ip_address":"94.88.73.137"},
{"id":83,"first_name":"Gerick","last_name":"Fearnyhough","email":"gfearnyhough2a@youku.com","gender":"Male","ip_address":"157.232.115.157"},
{"id":84,"first_name":"Ly","last_name":"Trulock","email":"ltrulock2b@jigsy.com","gender":"Male","ip_address":"52.219.39.87"},
{"id":85,"first_name":"Derby","last_name":"Baggott","email":"dbaggott2c@fema.gov","gender":"Male","ip_address":"54.67.131.115"},
{"id":86,"first_name":"Nickie","last_name":"Apark","email":"napark2d@tinyurl.com","gender":"Male","ip_address":"239.83.20.167"},
{"id":87,"first_name":"Bone","last_name":"Diegan","email":"bdiegan2e@cargocollective.com","gender":"Male","ip_address":"77.16.203.95"},
{"id":88,"first_name":"Kerrie","last_name":"Kingwell","email":"kkingwell2f@google.com","gender":"Female","ip_address":"133.43.72.207"},
{"id":89,"first_name":"Mela","last_name":"McGahey","email":"mmcgahey2g@ucsd.edu","gender":"Female","ip_address":"243.49.41.126"},
{"id":90,"first_name":"Bourke","last_name":"Chant","email":"bchant2h@nationalgeographic.com","gender":"Male","ip_address":"115.223.50.65"},
{"id":91,"first_name":"Nonah","last_name":"Boissier","email":"nboissier2i@ibm.com","gender":"Female","ip_address":"88.29.99.20"},
{"id":92,"first_name":"Drew","last_name":"McConaghy","email":"dmcconaghy2j@hugedomains.com","gender":"Male","ip_address":"168.56.11.62"},
{"id":93,"first_name":"Lukas","last_name":"Swatheridge","email":"lswatheridge2k@goo.ne.jp","gender":"Male","ip_address":"62.127.211.204"},
{"id":94,"first_name":"Mohammed","last_name":"Haseman","email":"mhaseman2l@engadget.com","gender":"Male","ip_address":"105.128.207.210"},
{"id":95,"first_name":"Olenolin","last_name":"Duell","email":"oduell2m@ucoz.ru","gender":"Male","ip_address":"146.86.73.243"},
{"id":96,"first_name":"Iggie","last_name":"Gabriely","email":"igabriely2n@slashdot.org","gender":"Male","ip_address":"120.136.251.181"},
{"id":97,"first_name":"Kelsi","last_name":"Hagan","email":"khagan2o@discovery.com","gender":"Female","ip_address":"250.151.249.9"},
{"id":98,"first_name":"Ame","last_name":"Chaston","email":"achaston2p@ezinearticles.com","gender":"Female","ip_address":"251.44.151.114"},
{"id":99,"first_name":"Marguerite","last_name":"Roller","email":"mroller2q@state.gov","gender":"Female","ip_address":"62.200.95.253"},
{"id":100,"first_name":"Frazier","last_name":"Dinse","email":"fdinse2r@craigslist.org","gender":"Male","ip_address":"36.220.165.70"},
{"id":101,"first_name":"Normy","last_name":"Ludlow","email":"nludlow2s@wikimedia.org","gender":"Male","ip_address":"37.240.251.39"},
{"id":102,"first_name":"Raoul","last_name":"Uttley","email":"ruttley2t@ihg.com","gender":"Male","ip_address":"4.255.161.134"},
{"id":103,"first_name":"Tabbatha","last_name":"Piggford","email":"tpiggford2u@hibu.com","gender":"Female","ip_address":"237.213.142.95"},
{"id":104,"first_name":"Modesta","last_name":"O'Heagertie","email":"moheagertie2v@examiner.com","gender":"Female","ip_address":"123.198.130.118"},
{"id":105,"first_name":"Grant","last_name":"Bousquet","email":"gbousquet2w@freewebs.com","gender":"Male","ip_address":"90.125.153.184"},
{"id":106,"first_name":"Nathaniel","last_name":"Lindl","email":"nlindl2x@miibeian.gov.cn","gender":"Male","ip_address":"37.170.109.103"},
{"id":107,"first_name":"Gil","last_name":"Aylward","email":"gaylward2y@nps.gov","gender":"Male","ip_address":"172.82.229.224"},
{"id":108,"first_name":"Ivie","last_name":"Lewsley","email":"ilewsley2z@toplist.cz","gender":"Female","ip_address":"154.71.252.110"},
{"id":109,"first_name":"Tris","last_name":"Cranage","email":"tcranage30@whitehouse.gov","gender":"Male","ip_address":"65.210.137.176"},
{"id":110,"first_name":"Dacey","last_name":"Brettor","email":"dbrettor31@answers.com","gender":"Female","ip_address":"10.152.197.140"},
{"id":111,"first_name":"Pacorro","last_name":"Sleney","email":"psleney32@moonfruit.com","gender":"Male","ip_address":"103.22.189.35"},
{"id":112,"first_name":"Imogene","last_name":"Appleyard","email":"iappleyard33@cisco.com","gender":"Female","ip_address":"27.132.84.168"},
{"id":113,"first_name":"Bevan","last_name":"Beetles","email":"bbeetles34@topsy.com","gender":"Male","ip_address":"181.96.50.220"},
{"id":114,"first_name":"Zachariah","last_name":"Reddoch","email":"zreddoch35@acquirethisname.com","gender":"Male","ip_address":"12.63.186.227"},
{"id":115,"first_name":"Laughton","last_name":"Lempenny","email":"llempenny36@privacy.gov.au","gender":"Male","ip_address":"172.175.0.105"},
{"id":116,"first_name":"Sheba","last_name":"Taunton","email":"staunton37@gnu.org","gender":"Female","ip_address":"26.34.42.212"},
{"id":117,"first_name":"Marylynne","last_name":"Tomczykowski","email":"mtomczykowski38@tuttocitta.it","gender":"Female","ip_address":"3.35.213.146"},
{"id":118,"first_name":"Baryram","last_name":"Normand","email":"bnormand39@businesswire.com","gender":"Male","ip_address":"65.16.195.28"},
{"id":119,"first_name":"Ewart","last_name":"Corteis","email":"ecorteis3a@barnesandnoble.com","gender":"Male","ip_address":"160.173.235.42"},
{"id":120,"first_name":"Cord","last_name":"Guinnane","email":"cguinnane3b@telegraph.co.uk","gender":"Male","ip_address":"228.9.109.229"},
{"id":121,"first_name":"Jesse","last_name":"Ilott","email":"jilott3c@wordpress.org","gender":"Female","ip_address":"64.188.253.227"},
{"id":122,"first_name":"Lawry","last_name":"Quenell","email":"lquenell3d@indiatimes.com","gender":"Male","ip_address":"58.4.245.48"},
{"id":123,"first_name":"Pamella","last_name":"Seakin","email":"pseakin3e@last.fm","gender":"Female","ip_address":"152.173.225.250"},
{"id":124,"first_name":"Nert","last_name":"O'Moylan","email":"nomoylan3f@macromedia.com","gender":"Female","ip_address":"123.230.179.35"},
{"id":125,"first_name":"Milena","last_name":"Larver","email":"mlarver3g@google.es","gender":"Female","ip_address":"36.118.103.144"},
{"id":126,"first_name":"Aloin","last_name":"Klemmt","email":"aklemmt3h@bigcartel.com","gender":"Male","ip_address":"9.95.206.14"},
{"id":127,"first_name":"Betsy","last_name":"Baughn","email":"bbaughn3i@telegraph.co.uk","gender":"Female","ip_address":"208.186.202.26"},
{"id":128,"first_name":"Sindee","last_name":"Strond","email":"sstrond3j@wikispaces.com","gender":"Female","ip_address":"13.199.252.14"},
{"id":129,"first_name":"Edna","last_name":"Vere","email":"evere3k@webs.com","gender":"Female","ip_address":"233.130.136.87"},
{"id":130,"first_name":"Jojo","last_name":"Venour","email":"jvenour3l@census.gov","gender":"Female","ip_address":"237.161.103.172"},
{"id":131,"first_name":"Cassie","last_name":"Seyers","email":"cseyers3m@earthlink.net","gender":"Male","ip_address":"221.112.222.134"},
{"id":132,"first_name":"Tabby","last_name":"Dooland","email":"tdooland3n@gmpg.org","gender":"Male","ip_address":"1.84.87.89"},
{"id":133,"first_name":"Kris","last_name":"Borchardt","email":"kborchardt3o@php.net","gender":"Female","ip_address":"85.42.241.220"},
{"id":134,"first_name":"Stephen","last_name":"Czadla","email":"sczadla3p@forbes.com","gender":"Male","ip_address":"44.92.167.220"},
{"id":135,"first_name":"Andy","last_name":"Godsmark","email":"agodsmark3q@discuz.net","gender":"Female","ip_address":"134.40.17.7"},
{"id":136,"first_name":"Booth","last_name":"Dickins","email":"bdickins3r@wikimedia.org","gender":"Male","ip_address":"55.176.246.108"},
{"id":137,"first_name":"Lane","last_name":"Southerell","email":"lsoutherell3s@nasa.gov","gender":"Male","ip_address":"3.161.16.66"},
{"id":138,"first_name":"Devan","last_name":"Denisovich","email":"ddenisovich3t@nymag.com","gender":"Female","ip_address":"156.48.206.114"},
{"id":139,"first_name":"Bernadina","last_name":"Scudamore","email":"bscudamore3u@bloglovin.com","gender":"Female","ip_address":"4.191.5.16"},
{"id":140,"first_name":"Loella","last_name":"Giraldo","email":"lgiraldo3v@bbc.co.uk","gender":"Female","ip_address":"188.212.127.92"},
{"id":141,"first_name":"Pen","last_name":"Danilyak","email":"pdanilyak3w@cbc.ca","gender":"Female","ip_address":"10.179.95.243"},
{"id":142,"first_name":"Andreana","last_name":"Farland","email":"afarland3x@ftc.gov","gender":"Female","ip_address":"129.181.194.154"},
{"id":143,"first_name":"Christine","last_name":"Rowbottam","email":"crowbottam3y@ezinearticles.com","gender":"Female","ip_address":"71.51.62.255"},
{"id":144,"first_name":"Myrle","last_name":"Liver","email":"mliver3z@house.gov","gender":"Female","ip_address":"19.209.42.53"},
{"id":145,"first_name":"Katrina","last_name":"Osipov","email":"kosipov40@stanford.edu","gender":"Female","ip_address":"186.174.88.74"},
{"id":146,"first_name":"Edgardo","last_name":"Loxston","email":"eloxston41@salon.com","gender":"Male","ip_address":"238.219.241.227"},
{"id":147,"first_name":"Everett","last_name":"Matonin","email":"ematonin42@dedecms.com","gender":"Male","ip_address":"158.161.68.7"},
{"id":148,"first_name":"Flint","last_name":"Glew","email":"fglew43@latimes.com","gender":"Male","ip_address":"74.107.187.17"},
{"id":149,"first_name":"Hobey","last_name":"Itzkovici","email":"hitzkovici44@whitehouse.gov","gender":"Male","ip_address":"90.195.184.154"},
{"id":150,"first_name":"Sibyl","last_name":"MacPaden","email":"smacpaden45@tuttocitta.it","gender":"Male","ip_address":"176.104.176.49"},
{"id":151,"first_name":"Giorgi","last_name":"Souter","email":"gsouter46@amazon.co.uk","gender":"Male","ip_address":"11.66.191.38"},
{"id":152,"first_name":"Alejandrina","last_name":"De Bruyn","email":"adebruyn47@illinois.edu","gender":"Female","ip_address":"77.159.138.23"},
{"id":153,"first_name":"Ikey","last_name":"Frangleton","email":"ifrangleton48@blinklist.com","gender":"Male","ip_address":"64.177.138.122"},
{"id":154,"first_name":"Edithe","last_name":"Gainsbury","email":"egainsbury49@upenn.edu","gender":"Female","ip_address":"80.224.232.121"},
{"id":155,"first_name":"Lazare","last_name":"Vader","email":"lvader4a@hao123.com","gender":"Male","ip_address":"166.45.15.219"},
{"id":156,"first_name":"Holly-anne","last_name":"McGeachy","email":"hmcgeachy4b@google.pl","gender":"Female","ip_address":"239.197.130.219"},
{"id":157,"first_name":"Bat","last_name":"Mauro","email":"bmauro4c@nature.com","gender":"Male","ip_address":"69.196.171.58"},
{"id":158,"first_name":"Renault","last_name":"Charer","email":"rcharer4d@4shared.com","gender":"Male","ip_address":"192.183.66.166"},
{"id":159,"first_name":"Efren","last_name":"Iacobetto","email":"eiacobetto4e@opera.com","gender":"Male","ip_address":"203.106.167.3"},
{"id":160,"first_name":"Fergus","last_name":"Delmage","email":"fdelmage4f@ibm.com","gender":"Male","ip_address":"248.193.67.109"},
{"id":161,"first_name":"Rosemaria","last_name":"Sellick","email":"rsellick4g@wunderground.com","gender":"Female","ip_address":"243.40.146.108"},
{"id":162,"first_name":"Maurise","last_name":"Bruford","email":"mbruford4h@google.co.jp","gender":"Male","ip_address":"104.186.180.10"},
{"id":163,"first_name":"Cordy","last_name":"Edmonson","email":"cedmonson4i@bigcartel.com","gender":"Male","ip_address":"114.115.79.88"},
{"id":164,"first_name":"Ernesto","last_name":"Goodbairn","email":"egoodbairn4j@wiley.com","gender":"Male","ip_address":"149.217.29.146"},
{"id":165,"first_name":"Wren","last_name":"Cow","email":"wcow4k@weather.com","gender":"Female","ip_address":"32.148.161.110"},
{"id":166,"first_name":"Ardeen","last_name":"Cristoforo","email":"acristoforo4l@twitpic.com","gender":"Female","ip_address":"245.37.51.15"},
{"id":167,"first_name":"Cosmo","last_name":"Treanor","email":"ctreanor4m@ask.com","gender":"Male","ip_address":"79.74.199.124"},
{"id":168,"first_name":"Brenna","last_name":"Scawen","email":"bscawen4n@prlog.org","gender":"Female","ip_address":"27.216.7.60"},
{"id":169,"first_name":"Gaylord","last_name":"Cloake","email":"gcloake4o@joomla.org","gender":"Male","ip_address":"181.241.172.230"},
{"id":170,"first_name":"Wylma","last_name":"Willishire","email":"wwillishire4p@tiny.cc","gender":"Female","ip_address":"244.123.12.237"},
{"id":171,"first_name":"Foss","last_name":"Melendez","email":"fmelendez4q@umich.edu","gender":"Male","ip_address":"28.33.134.193"},
{"id":172,"first_name":"Minta","last_name":"Olivello","email":"molivello4r@jigsy.com","gender":"Female","ip_address":"139.234.205.23"},
{"id":173,"first_name":"Berthe","last_name":"Sellers","email":"bsellers4s@ibm.com","gender":"Female","ip_address":"92.165.87.238"},
{"id":174,"first_name":"Rafaello","last_name":"Canto","email":"rcanto4t@ucla.edu","gender":"Male","ip_address":"163.251.136.129"},
{"id":175,"first_name":"Batsheva","last_name":"Kempster","email":"bkempster4u@cocolog-nifty.com","gender":"Female","ip_address":"2.225.110.83"},
{"id":176,"first_name":"Guido","last_name":"Czajkowska","email":"gczajkowska4v@gmpg.org","gender":"Male","ip_address":"25.200.215.30"},
{"id":177,"first_name":"Nobie","last_name":"Really","email":"nreally4w@state.tx.us","gender":"Male","ip_address":"39.146.81.23"},
{"id":178,"first_name":"Tann","last_name":"Whysall","email":"twhysall4x@tripod.com","gender":"Male","ip_address":"144.34.112.231"},
{"id":179,"first_name":"Wells","last_name":"Livsey","email":"wlivsey4y@godaddy.com","gender":"Male","ip_address":"206.103.56.80"},
{"id":180,"first_name":"Jarred","last_name":"Rolance","email":"jrolance4z@list-manage.com","gender":"Male","ip_address":"90.225.90.164"},
{"id":181,"first_name":"Neda","last_name":"Gunter","email":"ngunter50@howstuffworks.com","gender":"Female","ip_address":"90.212.160.202"},
{"id":182,"first_name":"Gregor","last_name":"Illston","email":"gillston51@mediafire.com","gender":"Male","ip_address":"104.29.209.151"},
{"id":183,"first_name":"Kora","last_name":"Blockley","email":"kblockley52@cafepress.com","gender":"Female","ip_address":"224.216.69.61"},
{"id":184,"first_name":"Margarette","last_name":"Argontt","email":"margontt53@moonfruit.com","gender":"Female","ip_address":"197.141.209.174"},
{"id":185,"first_name":"Noel","last_name":"Angrove","email":"nangrove54@fotki.com","gender":"Male","ip_address":"17.173.101.127"},
{"id":186,"first_name":"Auroora","last_name":"Hagger","email":"ahagger55@dedecms.com","gender":"Female","ip_address":"42.145.146.171"},
{"id":187,"first_name":"Jasmine","last_name":"Louys","email":"jlouys56@un.org","gender":"Female","ip_address":"130.169.48.83"},
{"id":188,"first_name":"Sheilah","last_name":"Duxbarry","email":"sduxbarry57@skyrock.com","gender":"Female","ip_address":"231.74.9.133"},
{"id":189,"first_name":"Catharina","last_name":"Pattisson","email":"cpattisson58@pinterest.com","gender":"Female","ip_address":"189.221.188.168"},
{"id":190,"first_name":"Laurette","last_name":"Boyson","email":"lboyson59@ifeng.com","gender":"Female","ip_address":"64.55.46.75"},
{"id":191,"first_name":"Abbey","last_name":"Leonardi","email":"aleonardi5a@pcworld.com","gender":"Male","ip_address":"105.33.77.63"},
{"id":192,"first_name":"Townsend","last_name":"Bleasdale","email":"tbleasdale5b@hubpages.com","gender":"Male","ip_address":"60.255.238.118"},
{"id":193,"first_name":"Merry","last_name":"Ruckledge","email":"mruckledge5c@indiegogo.com","gender":"Female","ip_address":"104.232.68.226"},
{"id":194,"first_name":"Genevra","last_name":"Lavington","email":"glavington5d@tripadvisor.com","gender":"Female","ip_address":"137.125.196.244"},
{"id":195,"first_name":"Sula","last_name":"Tunuy","email":"stunuy5e@xrea.com","gender":"Female","ip_address":"39.67.83.207"},
{"id":196,"first_name":"Jarrett","last_name":"Jirzik","email":"jjirzik5f@japanpost.jp","gender":"Male","ip_address":"29.86.56.36"},
{"id":197,"first_name":"Carlo","last_name":"Fields","email":"cfields5g@wikispaces.com","gender":"Male","ip_address":"112.113.9.53"},
{"id":198,"first_name":"Carolyn","last_name":"Hallstone","email":"challstone5h@imageshack.us","gender":"Female","ip_address":"34.195.214.103"},
{"id":199,"first_name":"Swen","last_name":"Rudolf","email":"srudolf5i@simplemachines.org","gender":"Male","ip_address":"131.202.137.19"},
{"id":200,"first_name":"Joel","last_name":"Horlick","email":"jhorlick5j@t.co","gender":"Male","ip_address":"149.33.215.192"}]
]